001,Nam,2000.0,200.0
002,Huy,3000.0,500.0
003,Quang,2400.0,100.0
004,Hai,2500.0,400.0
005,Phong,2700.0,400.0
006,Tu,3000.0,700.0
007,Khoi,1200.0,200.0
008,Hoa,1700.0,200.0
009,Yen,2400.0,700.0
010,Xuan,2600.0,250.0
011,Pho,2400.0,100.0
024,Phuong,1600.0,300.0
030,Hai,3000.0,200.0
099,Huy,4000.0,200.0
100,Dung,2000.0,450.0
